{
  "auth": {
    "username": "",
    "access_key": ""
  },
  "browsers": [
    {
      "browser": "chrome",
      "os": "Windows 10",
      "versions": ["latest", "latest - 1"]
    },
    {
      "browser": "firefox",
      "os": "OS X Mojave",
      "versions": ["latest", "latest - 1"]
    },
    {
      "browser": "edge",
      "os": "OS X Catalina",
      "versions": ["latest"]
    }
    
  ],
  "run_settings": {
    "cypress_proj_dir": "./",
    "cypress_config_file": "./cypress.json",
    "cypress_version": "6.3.0",
    "project_name": "CypressAutomation",
    "build_name": "Build no. 1",
    "parallels": "3",
    "specs": [
      "**/*.feature",
      "**/*Test.js"
    ],
    "npm_dependencies": {
      "axe-core": "^4.1.1",
      "cypress": "6.3.0",
      "cypress-axe": "^0.12.0",
      "cypress-cucumber-preprocessor": "^4.0.0",
      "mocha": "^8.0.0",
      "mochawesome": "^6.0.0",
      "mochawesome-merge": "^4.2.0",
      "multiple-cucumber-html-reporter": "^1.18.0"
    },
    "package_config_options": {
      "cypress-cucumber-preprocessor": {
        "nonGlobalStepDefinitions": true,
        "cucumberJson": {
          "generate": true,
          "outputFolder": "cypress/cucumber-json",
          "filePrefix": "",
          "fileSuffix": ".cucumber",
          "stepDefinitions": "cypress/integration"
        }
      }
    }
  }
}
